<?xml version="1.0" encoding="UTF-8" standalone="no"?>
<!-- Created with Inkscape (http://www.inkscape.org/) -->

<svg
   xmlns:dc="http://purl.org/dc/elements/1.1/"
   xmlns:cc="http://creativecommons.org/ns#"
   xmlns:rdf="http://www.w3.org/1999/02/22-rdf-syntax-ns#"
   xmlns:svg="http://www.w3.org/2000/svg"
   xmlns="http://www.w3.org/2000/svg"
   xmlns:xlink="http://www.w3.org/1999/xlink"
   xmlns:sodipodi="http://sodipodi.sourceforge.net/DTD/sodipodi-0.dtd"
   xmlns:inkscape="http://www.inkscape.org/namespaces/inkscape"
   width="592.8009"
   height="392.8009"
   id="svg2463"
   sodipodi:version="0.32"
   inkscape:version="0.48.3.1 r9886"
   sodipodi:docname="logo.svg"
   version="1.1">
  <defs
     id="defs2465">
    <filter
       inkscape:collect="always"
       id="filter3775"
       x="-0.047862581"
       width="1.0957252"
       y="-0.14408838"
       height="1.2881768">
      <feGaussianBlur
         inkscape:collect="always"
         stdDeviation="9.6527945"
         id="feGaussianBlur3777" />
    </filter>
  </defs>
  <sodipodi:namedview
     id="base"
     pagecolor="#ffffff"
     bordercolor="#666666"
     borderopacity="1.0"
     inkscape:pageopacity="0.0"
     inkscape:pageshadow="2"
     inkscape:zoom="1.4"
     inkscape:cx="251.91412"
     inkscape:cy="165.26661"
     inkscape:document-units="px"
     inkscape:current-layer="layer1"
     inkscape:window-width="1600"
     inkscape:window-height="844"
     inkscape:window-x="0"
     inkscape:window-y="27"
     showgrid="false"
     fit-margin-top="10"
     fit-margin-left="10"
     fit-margin-right="10"
     fit-margin-bottom="10"
     inkscape:window-maximized="1" />
  <metadata
     id="metadata2468">
    <rdf:RDF>
      <cc:Work
         rdf:about="">
        <dc:format>image/svg+xml</dc:format>
        <dc:type
           rdf:resource="http://purl.org/dc/dcmitype/StillImage" />
      </cc:Work>
    </rdf:RDF>
  </metadata>
  <g
     inkscape:label="Layer 1"
     inkscape:groupmode="layer"
     id="layer1"
     transform="translate(-92.17098,-113.1046)">
    <path
       class="fil1 str0"
       d="m 146.55871,333.02603 87.86861,-71.67652 37.66902,33.79269 47.59884,-46.88429 20.96242,-21.35567 30.89189,17.01904 22.14434,13.58258 -15.99753,17.67366 95.27642,-102.93272 157.61143,152.84444 m -216.63696,-94.91412 38.85127,30.27432 22.30183,-27.32871 31.9163,19.22828 26.71515,-18.81915 m -217.18889,13.74619 25.92733,20.21014 22.61717,-23.56491"
       id="path610"
       style="font-size:12px;fill:none;stroke:#0000a8;stroke-width:10.22620582999999961;stroke-opacity:1"
       inkscape:connector-curvature="0" />
    <rect
       style="fill:none;stroke:#000000;stroke-width:7.08661413;stroke-linecap:round;stroke-linejoin:round;stroke-miterlimit:4;stroke-opacity:1;stroke-dasharray:none;stroke-dashoffset:0"
       id="rect2483"
       width="565.71429"
       height="365.71429"
       x="105.71429"
       y="126.6479"
       ry="85.714287"
       rx="85.714287" />
    <use
       x="0"
       y="0"
       xlink:href="#path610"
       id="use2985"
       transform="translate(1.4285696,5.7142855)"
       width="592.8009"
       height="392.8009"
       style="stroke:#00d1fb;stroke-opacity:1;filter:url(#filter3775)" />
    <a
       id="a3783">
      <text
         sodipodi:linespacing="125%"
         id="text3779"
         y="449.33408"
         x="391.99548"
         style="font-size:40px;font-style:normal;font-weight:normal;text-align:center;line-height:125%;letter-spacing:0px;word-spacing:0px;text-anchor:middle;fill:#000000;fill-opacity:1;stroke:none;font-family:Sans"
         xml:space="preserve"><tspan
           style="font-size:120px;font-style:normal;font-variant:normal;font-weight:normal;font-stretch:normal;text-align:center;letter-spacing:20px;text-anchor:middle;font-family:Liberation Sans;-inkscape-font-specification:Liberation Sans"
           y="449.33408"
           x="401.99548"
           id="tspan3781"
           sodipodi:role="line">VALUG</tspan></text>
    </a>
  </g>
</svg>
